Source;Destination;Capacity (Gbps);Arrival Time Instant (sec);Duration;Distance (Km)
4.4.4.4;5.5.5.5;400;200;inf;2245
5.5.5.5;4.4.4.4;400;400;inf;2245
4.4.4.4;5.5.5.5;400;600;inf;2245
5.5.5.5;4.4.4.4;400;800;inf;2245
2.2.2.2;4.4.4.4;400;1000;inf;1995
4.4.4.4;2.2.2.2;400;1200;inf;1995
2.2.2.2;4.4.4.4;400;1400;inf;1995
4.4.4.4;2.2.2.2;400;1600;inf;1995
2.2.2.2;4.4.4.4;400;1800;inf;1995
4.4.4.4;2.2.2.2;400;2000;inf;1995
2.2.2.2;4.4.4.4;400;2200;inf;1995
4.4.4.4;2.2.2.2;400;2400;inf;1995
2.2.2.2;4.4.4.4;400;2600;inf;1995
4.4.4.4;2.2.2.2;400;2800;inf;1995
3.3.3.3;4.4.4.4;400;3000;inf;1845
4.4.4.4;3.3.3.3;400;3200;inf;1845
3.3.3.3;4.4.4.4;400;3400;inf;1845
4.4.4.4;3.3.3.3;400;3600;inf;1845
3.3.3.3;4.4.4.4;400;3800;inf;1845
4.4.4.4;3.3.3.3;400;4000;inf;1845
3.3.3.3;4.4.4.4;400;4200;inf;1845
4.4.4.4;3.3.3.3;400;4400;inf;1845
3.3.3.3;4.4.4.4;400;4600;inf;1845
4.4.4.4;3.3.3.3;400;4800;inf;1845
1.1.1.1;4.4.4.4;400;5000;inf;1255
4.4.4.4;1.1.1.1;400;5200;inf;1255
1.1.1.1;4.4.4.4;400;5400;inf;1255
4.4.4.4;1.1.1.1;400;5600;inf;1255
1.1.1.1;4.4.4.4;400;5800;inf;1255
4.4.4.4;1.1.1.1;400;6000;inf;1255
1.1.1.1;4.4.4.4;400;6200;inf;1255
4.4.4.4;1.1.1.1;400;6400;inf;1255
1.1.1.1;4.4.4.4;400;6600;inf;1255
4.4.4.4;1.1.1.1;400;6800;inf;1255
1.1.1.1;5.5.5.5;400;7000;inf;990
5.5.5.5;1.1.1.1;400;7200;inf;990
1.1.1.1;5.5.5.5;400;7400;inf;990
5.5.5.5;1.1.1.1;400;7600;inf;990
1.1.1.1;2.2.2.2;400;7800;inf;740
2.2.2.2;1.1.1.1;400;8000;inf;740
1.1.1.1;2.2.2.2;400;8200;inf;740
2.2.2.2;1.1.1.1;400;8400;inf;740
1.1.1.1;2.2.2.2;400;8600;inf;740
2.2.2.2;1.1.1.1;400;8800;inf;740
1.1.1.1;2.2.2.2;400;9000;inf;740
2.2.2.2;1.1.1.1;400;9200;inf;740
1.1.1.1;2.2.2.2;400;9400;inf;740
2.2.2.2;1.1.1.1;400;9600;inf;740
1.1.1.1;2.2.2.2;400;9800;inf;740
2.2.2.2;1.1.1.1;400;10000;inf;740
1.1.1.1;2.2.2.2;400;10200;inf;740
2.2.2.2;1.1.1.1;400;10400;inf;740
1.1.1.1;2.2.2.2;400;10600;inf;740
2.2.2.2;1.1.1.1;400;10800;inf;740
3.3.3.3;5.5.5.5;400;11000;inf;690
5.5.5.5;3.3.3.3;400;11200;inf;690
3.3.3.3;5.5.5.5;400;11400;inf;690
5.5.5.5;3.3.3.3;400;11600;inf;690
1.1.1.1;3.3.3.3;400;11800;inf;590
3.3.3.3;1.1.1.1;400;12000;inf;590
1.1.1.1;3.3.3.3;400;12200;inf;590
3.3.3.3;1.1.1.1;400;12400;inf;590
1.1.1.1;3.3.3.3;400;12600;inf;590
3.3.3.3;1.1.1.1;400;12800;inf;590
1.1.1.1;3.3.3.3;400;13000;inf;590
3.3.3.3;1.1.1.1;400;13200;inf;590
1.1.1.1;3.3.3.3;400;13400;inf;590
3.3.3.3;1.1.1.1;400;13600;inf;590
1.1.1.1;3.3.3.3;400;13800;inf;590
3.3.3.3;1.1.1.1;400;14000;inf;590
1.1.1.1;3.3.3.3;400;14200;inf;590
3.3.3.3;1.1.1.1;400;14400;inf;590
1.1.1.1;3.3.3.3;400;14600;inf;590
3.3.3.3;1.1.1.1;400;14800;inf;590
1.1.1.1;3.3.3.3;400;15000;inf;590
3.3.3.3;1.1.1.1;400;15200;inf;590
1.1.1.1;3.3.3.3;400;15400;inf;590
3.3.3.3;1.1.1.1;400;15600;inf;590
1.1.1.1;3.3.3.3;400;15800;inf;590
3.3.3.3;1.1.1.1;400;16000;inf;590
1.1.1.1;3.3.3.3;400;16200;inf;590
3.3.3.3;1.1.1.1;400;16400;inf;590
1.1.1.1;3.3.3.3;400;16600;inf;590
3.3.3.3;1.1.1.1;400;16800;inf;590
1.1.1.1;3.3.3.3;400;17000;inf;590
3.3.3.3;1.1.1.1;400;17200;inf;590
1.1.1.1;3.3.3.3;400;17400;inf;590
3.3.3.3;1.1.1.1;400;17600;inf;590
1.1.1.1;3.3.3.3;400;17800;inf;590
3.3.3.3;1.1.1.1;400;18000;inf;590
1.1.1.1;3.3.3.3;400;18200;inf;590
3.3.3.3;1.1.1.1;400;18400;inf;590
1.1.1.1;3.3.3.3;400;18600;inf;590
3.3.3.3;1.1.1.1;400;18800;inf;590
1.1.1.1;3.3.3.3;400;19000;inf;590
3.3.3.3;1.1.1.1;400;19200;inf;590
1.1.1.1;3.3.3.3;400;19400;inf;590
3.3.3.3;1.1.1.1;400;19600;inf;590
1.1.1.1;3.3.3.3;400;19800;inf;590
3.3.3.3;1.1.1.1;400;20000;inf;590
1.1.1.1;3.3.3.3;400;20200;inf;590
3.3.3.3;1.1.1.1;400;20400;inf;590
1.1.1.1;3.3.3.3;400;20600;inf;590
3.3.3.3;1.1.1.1;400;20800;inf;590
1.1.1.1;3.3.3.3;400;21000;inf;590
3.3.3.3;1.1.1.1;400;21200;inf;590
2.2.2.2;3.3.3.3;400;21400;inf;520
3.3.3.3;2.2.2.2;400;21600;inf;520
2.2.2.2;3.3.3.3;400;21800;inf;520
3.3.3.3;2.2.2.2;400;22000;inf;520
2.2.2.2;3.3.3.3;400;22200;inf;520
3.3.3.3;2.2.2.2;400;22400;inf;520
2.2.2.2;3.3.3.3;400;22600;inf;520
3.3.3.3;2.2.2.2;400;22800;inf;520
2.2.2.2;3.3.3.3;400;23000;inf;520
3.3.3.3;2.2.2.2;400;23200;inf;520
2.2.2.2;3.3.3.3;400;23400;inf;520
3.3.3.3;2.2.2.2;400;23600;inf;520
2.2.2.2;3.3.3.3;400;23800;inf;520
3.3.3.3;2.2.2.2;400;24000;inf;520
2.2.2.2;3.3.3.3;400;24200;inf;520
3.3.3.3;2.2.2.2;400;24400;inf;520
2.2.2.2;3.3.3.3;400;24600;inf;520
3.3.3.3;2.2.2.2;400;24800;inf;520
2.2.2.2;5.5.5.5;400;25000;inf;250
5.5.5.5;2.2.2.2;400;25200;inf;250
2.2.2.2;5.5.5.5;400;25400;inf;250
5.5.5.5;2.2.2.2;400;25600;inf;250
5.5.5.5;12.12.12.12;100;25800;inf;2615
12.12.12.12;5.5.5.5;100;26000;inf;2615
5.5.5.5;11.11.11.11;100;26200;inf;2585
11.11.11.11;5.5.5.5;100;26400;inf;2585
2.2.2.2;12.12.12.12;100;26600;inf;2365
12.12.12.12;2.2.2.2;100;26800;inf;2365
2.2.2.2;11.11.11.11;100;27000;inf;2335
11.11.11.11;2.2.2.2;100;27200;inf;2335
4.4.4.4;5.5.5.5;100;27400;inf;2245
5.5.5.5;4.4.4.4;100;27600;inf;2245
4.4.4.4;5.5.5.5;100;27800;inf;2245
5.5.5.5;4.4.4.4;100;28000;inf;2245
3.3.3.3;12.12.12.12;100;28200;inf;2215
12.12.12.12;3.3.3.3;100;28400;inf;2215
3.3.3.3;11.11.11.11;100;28600;inf;2185
11.11.11.11;3.3.3.3;100;28800;inf;2185
1.1.1.1;12.12.12.12;100;29000;inf;1625
12.12.12.12;1.1.1.1;100;29200;inf;1625
1.1.1.1;11.11.11.11;100;29400;inf;1595
11.11.11.11;1.1.1.1;100;29600;inf;1595
1.1.1.1;5.5.5.5;100;29800;inf;990
5.5.5.5;1.1.1.1;100;30000;inf;990
1.1.1.1;5.5.5.5;100;30200;inf;990
5.5.5.5;1.1.1.1;100;30400;inf;990
1.1.1.1;2.2.2.2;100;30600;inf;740
2.2.2.2;1.1.1.1;100;30800;inf;740
1.1.1.1;2.2.2.2;100;31000;inf;740
2.2.2.2;1.1.1.1;100;31200;inf;740
1.1.1.1;2.2.2.2;100;31400;inf;740
2.2.2.2;1.1.1.1;100;31600;inf;740
3.3.3.3;5.5.5.5;100;31800;inf;690
5.5.5.5;3.3.3.3;100;32000;inf;690
3.3.3.3;5.5.5.5;100;32200;inf;690
5.5.5.5;3.3.3.3;100;32400;inf;690
1.1.1.1;3.3.3.3;100;32600;inf;590
3.3.3.3;1.1.1.1;100;32800;inf;590
2.2.2.2;3.3.3.3;100;33000;inf;520
3.3.3.3;2.2.2.2;100;33200;inf;520
2.2.2.2;3.3.3.3;100;33400;inf;520
3.3.3.3;2.2.2.2;100;33600;inf;520
2.2.2.2;3.3.3.3;100;33800;inf;520
3.3.3.3;2.2.2.2;100;34000;inf;520
4.4.4.4;12.12.12.12;100;34200;inf;370
12.12.12.12;4.4.4.4;100;34400;inf;370
4.4.4.4;11.11.11.11;100;34600;inf;340
11.11.11.11;4.4.4.4;100;34800;inf;340
2.2.2.2;5.5.5.5;100;35000;inf;250
5.5.5.5;2.2.2.2;100;35200;inf;250
2.2.2.2;5.5.5.5;100;35400;inf;250
5.5.5.5;2.2.2.2;100;35600;inf;250
11.11.11.11;12.12.12.12;100;35800;inf;115
12.12.12.12;11.11.11.11;100;36000;inf;115
